…
Preguntas de esta tarea. El objetivo es que des las instrucciones precisas de `dplyr` que nos dan los vuelos con las condiciones que se indiquen en cada ejercicio.

### Cuestión 1.
Encuentra todos los vuelos que llegaron más de una hora tarde de lo previsto.

#### Solución


```r
library(nycflights13)
filter(flights, arr_delay>60) 
```

```
## # A tibble: 27,789 x 19
##     year month   day dep_time sched_dep_time dep_delay arr_time sched_arr_time
##    <int> <int> <int>    <int>          <int>     <dbl>    <int>          <int>
##  1  2013     1     1      811            630       101     1047            830
##  2  2013     1     1      848           1835       853     1001           1950
##  3  2013     1     1      957            733       144     1056            853
##  4  2013     1     1     1114            900       134     1447           1222
##  5  2013     1     1     1120            944        96     1331           1213
##  6  2013     1     1     1255           1200        55     1451           1330
##  7  2013     1     1     1301           1150        71     1518           1345
##  8  2013     1     1     1337           1220        77     1649           1531
##  9  2013     1     1     1342           1320        22     1617           1504
## 10  2013     1     1     1400           1250        70     1645           1502
## # ... with 27,779 more rows, and 11 more variables: arr_delay <dbl>,
## #   carrier <chr>, flight <int>, tailnum <chr>, origin <chr>, dest <chr>,
## #   air_time <dbl>, distance <dbl>, hour <dbl>, minute <dbl>, time_hour <dttm>
```


### Cuestión 2.
Encuentra todos los vuelos que volaron hacia San Francisco (aeropuertos SFO y OAK)


#### Solución


```r
filter(flights, dest == "SFO" | dest == "OAK") 
```

```
## # A tibble: 13,643 x 19
##     year month   day dep_time sched_dep_time dep_delay arr_time sched_arr_time
##    <int> <int> <int>    <int>          <int>     <dbl>    <int>          <int>
##  1  2013     1     1      558            600        -2      923            937
##  2  2013     1     1      611            600        11      945            931
##  3  2013     1     1      655            700        -5     1037           1045
##  4  2013     1     1      729            730        -1     1049           1115
##  5  2013     1     1      734            737        -3     1047           1113
##  6  2013     1     1      745            745         0     1135           1125
##  7  2013     1     1      746            746         0     1119           1129
##  8  2013     1     1      803            800         3     1132           1144
##  9  2013     1     1      826            817         9     1145           1158
## 10  2013     1     1     1029           1030        -1     1427           1355
## # ... with 13,633 more rows, and 11 more variables: arr_delay <dbl>,
## #   carrier <chr>, flight <int>, tailnum <chr>, origin <chr>, dest <chr>,
## #   air_time <dbl>, distance <dbl>, hour <dbl>, minute <dbl>, time_hour <dttm>
```

### Cuestión 3.
Encuentra todos los vuelos operados por United American (UA) o por American Airlines (AA)

#### Solución


```r
filter(flights, carrier == "UA" | carrier == "AA") 
```

```
## # A tibble: 91,394 x 19
##     year month   day dep_time sched_dep_time dep_delay arr_time sched_arr_time
##    <int> <int> <int>    <int>          <int>     <dbl>    <int>          <int>
##  1  2013     1     1      517            515         2      830            819
##  2  2013     1     1      533            529         4      850            830
##  3  2013     1     1      542            540         2      923            850
##  4  2013     1     1      554            558        -4      740            728
##  5  2013     1     1      558            600        -2      753            745
##  6  2013     1     1      558            600        -2      924            917
##  7  2013     1     1      558            600        -2      923            937
##  8  2013     1     1      559            600        -1      941            910
##  9  2013     1     1      559            600        -1      854            902
## 10  2013     1     1      606            610        -4      858            910
## # ... with 91,384 more rows, and 11 more variables: arr_delay <dbl>,
## #   carrier <chr>, flight <int>, tailnum <chr>, origin <chr>, dest <chr>,
## #   air_time <dbl>, distance <dbl>, hour <dbl>, minute <dbl>, time_hour <dttm>
```

### Cuestión 8.4.
Encuentra todos los vuelos que salieron los meses de primavera (Abril, Mayo y Junio)

#### Solución


```r
filter(flights, month %in% c(4,5,6))
```

```
## # A tibble: 85,369 x 19
##     year month   day dep_time sched_dep_time dep_delay arr_time sched_arr_time
##    <int> <int> <int>    <int>          <int>     <dbl>    <int>          <int>
##  1  2013     4     1      454            500        -6      636            640
##  2  2013     4     1      509            515        -6      743            814
##  3  2013     4     1      526            530        -4      812            827
##  4  2013     4     1      534            540        -6      833            850
##  5  2013     4     1      542            545        -3      914            920
##  6  2013     4     1      543            545        -2      921            927
##  7  2013     4     1      551            600        -9      748            659
##  8  2013     4     1      552            600        -8      641            701
##  9  2013     4     1      553            600        -7      725            735
## 10  2013     4     1      554            600        -6      752            805
## # ... with 85,359 more rows, and 11 more variables: arr_delay <dbl>,
## #   carrier <chr>, flight <int>, tailnum <chr>, origin <chr>, dest <chr>,
## #   air_time <dbl>, distance <dbl>, hour <dbl>, minute <dbl>, time_hour <dttm>
```

### Cuestión 5.
Encuentra todos los vuelos que llegaron más de una hora tarde pero salieron con menos de una hora de retraso.

#### Solución


```r
filter(flights, arr_delay > 60, dep_delay <= 60) 
```

```
## # A tibble: 5,124 x 19
##     year month   day dep_time sched_dep_time dep_delay arr_time sched_arr_time
##    <int> <int> <int>    <int>          <int>     <dbl>    <int>          <int>
##  1  2013     1     1     1255           1200        55     1451           1330
##  2  2013     1     1     1342           1320        22     1617           1504
##  3  2013     1     1     1402           1323        39     1650           1526
##  4  2013     1     1     1411           1315        56     1717           1611
##  5  2013     1     1     1424           1349        35     1701           1556
##  6  2013     1     1     1428           1329        59     1803           1640
##  7  2013     1     1     1558           1534        24     1808           1703
##  8  2013     1     1     1604           1510        54     1817           1710
##  9  2013     1     1     1608           1535        33     2002           1850
## 10  2013     1     1     1630           1548        42     1902           1755
## # ... with 5,114 more rows, and 11 more variables: arr_delay <dbl>,
## #   carrier <chr>, flight <int>, tailnum <chr>, origin <chr>, dest <chr>,
## #   air_time <dbl>, distance <dbl>, hour <dbl>, minute <dbl>, time_hour <dttm>
```

### Cuestión 6.
Encuentra todos los vuelos que salieron con más de una hora de retraso pero consiguieron llegar con menos de 30 minutos de retraso (el avión aceleró en el aire)

#### Solución


```r
filter(flights, arr_delay > 60, dep_delay <= 30) 
```

```
## # A tibble: 1,986 x 19
##     year month   day dep_time sched_dep_time dep_delay arr_time sched_arr_time
##    <int> <int> <int>    <int>          <int>     <dbl>    <int>          <int>
##  1  2013     1     1     1342           1320        22     1617           1504
##  2  2013     1     1     1558           1534        24     1808           1703
##  3  2013     1     1     1751           1745         6     2015           1910
##  4  2013     1     1     2000           1930        30     2255           2140
##  5  2013     1     2      841            845        -4     1134           1024
##  6  2013     1     2      928            905        23     1331           1229
##  7  2013     1     2     1558           1600        -2     1923           1820
##  8  2013     1     6      654            655        -1     1025            921
##  9  2013     1     6      906            904         2     1313           1210
## 10  2013     1     6     1932           1910        22     2318           2204
## # ... with 1,976 more rows, and 11 more variables: arr_delay <dbl>,
## #   carrier <chr>, flight <int>, tailnum <chr>, origin <chr>, dest <chr>,
## #   air_time <dbl>, distance <dbl>, hour <dbl>, minute <dbl>, time_hour <dttm>
```

### Cuestión 7
Encuentra todos los vuelos que salen entre medianoche y las 7 de la mañana (vuelos nocturnos).

#### Solución


```r
filter(flights, hour >= 0, hour < 7) 
```

```
## # A tibble: 27,905 x 19
##     year month   day dep_time sched_dep_time dep_delay arr_time sched_arr_time
##    <int> <int> <int>    <int>          <int>     <dbl>    <int>          <int>
##  1  2013     1     1      517            515         2      830            819
##  2  2013     1     1      533            529         4      850            830
##  3  2013     1     1      542            540         2      923            850
##  4  2013     1     1      544            545        -1     1004           1022
##  5  2013     1     1      554            600        -6      812            837
##  6  2013     1     1      554            558        -4      740            728
##  7  2013     1     1      555            600        -5      913            854
##  8  2013     1     1      557            600        -3      709            723
##  9  2013     1     1      557            600        -3      838            846
## 10  2013     1     1      558            600        -2      753            745
## # ... with 27,895 more rows, and 11 more variables: arr_delay <dbl>,
## #   carrier <chr>, flight <int>, tailnum <chr>, origin <chr>, dest <chr>,
## #   air_time <dbl>, distance <dbl>, hour <dbl>, minute <dbl>, time_hour <dttm>
```

### Cuestión 8.
Investiga el uso de la función `between()` de `dplyr`. ¿Qué hace? Puedes usarlo para resolver la sintaxis necesaria para responder alguna de las preguntas anteriores?

#### Solución


```r
filter(flights, between(hour,0,6)) 
```

```
## # A tibble: 27,905 x 19
##     year month   day dep_time sched_dep_time dep_delay arr_time sched_arr_time
##    <int> <int> <int>    <int>          <int>     <dbl>    <int>          <int>
##  1  2013     1     1      517            515         2      830            819
##  2  2013     1     1      533            529         4      850            830
##  3  2013     1     1      542            540         2      923            850
##  4  2013     1     1      544            545        -1     1004           1022
##  5  2013     1     1      554            600        -6      812            837
##  6  2013     1     1      554            558        -4      740            728
##  7  2013     1     1      555            600        -5      913            854
##  8  2013     1     1      557            600        -3      709            723
##  9  2013     1     1      557            600        -3      838            846
## 10  2013     1     1      558            600        -2      753            745
## # ... with 27,895 more rows, and 11 more variables: arr_delay <dbl>,
## #   carrier <chr>, flight <int>, tailnum <chr>, origin <chr>, dest <chr>,
## #   air_time <dbl>, distance <dbl>, hour <dbl>, minute <dbl>, time_hour <dttm>
```

### Cuestión 9.
¿Cuantos vuelos tienen un valor desconocido de `dep_time`?

#### Solución


```r
filter(flights, is.na(dep_time)) 
```

```
## # A tibble: 8,255 x 19
##     year month   day dep_time sched_dep_time dep_delay arr_time sched_arr_time
##    <int> <int> <int>    <int>          <int>     <dbl>    <int>          <int>
##  1  2013     1     1       NA           1630        NA       NA           1815
##  2  2013     1     1       NA           1935        NA       NA           2240
##  3  2013     1     1       NA           1500        NA       NA           1825
##  4  2013     1     1       NA            600        NA       NA            901
##  5  2013     1     2       NA           1540        NA       NA           1747
##  6  2013     1     2       NA           1620        NA       NA           1746
##  7  2013     1     2       NA           1355        NA       NA           1459
##  8  2013     1     2       NA           1420        NA       NA           1644
##  9  2013     1     2       NA           1321        NA       NA           1536
## 10  2013     1     2       NA           1545        NA       NA           1910
## # ... with 8,245 more rows, and 11 more variables: arr_delay <dbl>,
## #   carrier <chr>, flight <int>, tailnum <chr>, origin <chr>, dest <chr>,
## #   air_time <dbl>, distance <dbl>, hour <dbl>, minute <dbl>, time_hour <dttm>
```
…
Repasa las funciones `arrange` y `select` de `dplyr` para comprobar que has entendido como funcionan.
Preguntas de esta tarea

### Cuestión 1.
Piensa cómo podrías usar la función `arrange()` para colocar todos los valores NA al inicio. Pista: puedes usar la función `is.na()` en lugar de la función `desc()` como argumento de `arrange`.

#### Solución


```r
arrange(flights,!is.na(dep_time)) 
```

```
## # A tibble: 336,776 x 19
##     year month   day dep_time sched_dep_time dep_delay arr_time sched_arr_time
##    <int> <int> <int>    <int>          <int>     <dbl>    <int>          <int>
##  1  2013     1     1       NA           1630        NA       NA           1815
##  2  2013     1     1       NA           1935        NA       NA           2240
##  3  2013     1     1       NA           1500        NA       NA           1825
##  4  2013     1     1       NA            600        NA       NA            901
##  5  2013     1     2       NA           1540        NA       NA           1747
##  6  2013     1     2       NA           1620        NA       NA           1746
##  7  2013     1     2       NA           1355        NA       NA           1459
##  8  2013     1     2       NA           1420        NA       NA           1644
##  9  2013     1     2       NA           1321        NA       NA           1536
## 10  2013     1     2       NA           1545        NA       NA           1910
## # ... with 336,766 more rows, and 11 more variables: arr_delay <dbl>,
## #   carrier <chr>, flight <int>, tailnum <chr>, origin <chr>, dest <chr>,
## #   air_time <dbl>, distance <dbl>, hour <dbl>, minute <dbl>, time_hour <dttm>
```
…
### Cuestión 3.
Ordena los vuelos de `flights` para encontrar los vuelos más rápidos. Usa el concepto de rapidez que consideres. 

#### Solución
Por ejemplo distancia/tiempo volando


```r
arrange(flights, desc(distance/air_time)) 
```

```
## # A tibble: 336,776 x 19
##     year month   day dep_time sched_dep_time dep_delay arr_time sched_arr_time
##    <int> <int> <int>    <int>          <int>     <dbl>    <int>          <int>
##  1  2013     5    25     1709           1700         9     1923           1937
##  2  2013     7     2     1558           1513        45     1745           1719
##  3  2013     5    13     2040           2025        15     2225           2226
##  4  2013     3    23     1914           1910         4     2045           2043
##  5  2013     1    12     1559           1600        -1     1849           1917
##  6  2013    11    17      650            655        -5     1059           1150
##  7  2013     2    21     2355           2358        -3      412            438
##  8  2013    11    17      759            800        -1     1212           1255
##  9  2013    11    16     2003           1925        38       17             36
## 10  2013    11    16     2349           2359       -10      402            440
## # ... with 336,766 more rows, and 11 more variables: arr_delay <dbl>,
## #   carrier <chr>, flight <int>, tailnum <chr>, origin <chr>, dest <chr>,
## #   air_time <dbl>, distance <dbl>, hour <dbl>, minute <dbl>, time_hour <dttm>
```
…
Vuelos entre el EWR, Aeropuerto Internacional Libertad de Newark  y LGA, Aeropuerto de La Guardia, ambos situados en el estado de Nueva York.

### Cuestión 6.
Dale al coco para pensar cuantas más maneras posibles de seleccionar los campos `dep_time`, `dep_delay`, `arr_time` y `arr_delay` del dataset de `flights`. 

#### Solución

Puedes hacerlo directamente o bien usando las diferentes funciones que hemos visto en la sección. Algunos ejemplos son:

```r
select(flights,dep_time, dep_delay, arr_time, arr_delay)
```

```
## # A tibble: 336,776 x 4
##    dep_time dep_delay arr_time arr_delay
##       <int>     <dbl>    <int>     <dbl>
##  1      517         2      830        11
##  2      533         4      850        20
##  3      542         2      923        33
##  4      544        -1     1004       -18
##  5      554        -6      812       -25
##  6      554        -4      740        12
##  7      555        -5      913        19
##  8      557        -3      709       -14
##  9      557        -3      838        -8
## 10      558        -2      753         8
## # ... with 336,766 more rows
```

```r
select(flights,starts_with("dep"), starts_with("arr"))
```

```
## # A tibble: 336,776 x 4
##    dep_time dep_delay arr_time arr_delay
##       <int>     <dbl>    <int>     <dbl>
##  1      517         2      830        11
##  2      533         4      850        20
##  3      542         2      923        33
##  4      544        -1     1004       -18
##  5      554        -6      812       -25
##  6      554        -4      740        12
##  7      555        -5      913        19
##  8      557        -3      709       -14
##  9      557        -3      838        -8
## 10      558        -2      753         8
## # ... with 336,766 more rows
```

```r
select(flights,ends_with("time"), ends_with("delay") -starts_with("sched"),-starts_with("air") )
```

```
## # A tibble: 336,776 x 5
##    dep_time sched_dep_time arr_time sched_arr_time  year
##       <int>          <int>    <int>          <int> <int>
##  1      517            515      830            819  2013
##  2      533            529      850            830  2013
##  3      542            540      923            850  2013
##  4      544            545     1004           1022  2013
##  5      554            600      812            837  2013
##  6      554            558      740            728  2013
##  7      555            600      913            854  2013
##  8      557            600      709            723  2013
##  9      557            600      838            846  2013
## 10      558            600      753            745  2013
## # ... with 336,766 more rows
```


### Cuestión 7.
¿Qué ocurre si pones el nombre de una misma variable varias veces en una `select()`?

#### Solución
Solo sale una vez


```r
select(flights, distance, distance, distance) 
```

```
## # A tibble: 336,776 x 1
##    distance
##       <dbl>
##  1     1400
##  2     1416
##  3     1089
##  4     1576
##  5      762
##  6      719
##  7     1065
##  8      229
##  9      944
## 10      733
## # ... with 336,766 more rows
```
…
